<?xml version="1.0" encoding="UTF-8"?>
<svg width="55px" height="55px" viewBox="0 0 55 55" version="1.1" xmlns="http://www.w3.org/2000/svg" xmlns:xlink="http://www.w3.org/1999/xlink">
    <!-- Generator: Sketch 60 (88103) - https://sketch.com -->
    <title>Group 21</title>
    <desc>Created with Sketch.</desc>
    <g id="Web" stroke="none" stroke-width="1" fill="none" fill-rule="evenodd">
        <g id="Landing-page-Copy-32" transform="translate(-930.000000, -433.000000)" fill="#3F52FF" stroke="#3F52FF" stroke-width="0.4">
            <g id="Notification-Copy" transform="translate(905.000000, 407.000000)">
                <g id="Group-21" transform="translate(26.000000, 27.000000)">
                    <g id="Group-19">
                        <path d="M26.5,50.8227827 C13.0883416,50.8227827 2.17721727,39.9116584 2.17721727,26.5 C2.17721727,13.0883416 13.0883416,2.17721727 26.5,2.17721727 C26.8853675,2.17721727 27.274545,2.18701475 27.6653555,2.20552109 C27.4095325,3.08293965 27.2805324,3.98757343 27.2805324,4.90908064 C27.2805324,9.391971 30.2921682,13.232038 34.5562482,14.3462289 C35.0972867,19.4822844 39.4947213,23.5270098 44.740182,23.5270098 C46.7622725,23.5270098 48.7092491,22.935351 50.3720988,21.8347677 C50.6714661,23.3707945 50.8227827,24.9340365 50.8227827,26.5 C50.8227827,39.9116584 39.9116584,50.8227827 26.5,50.8227827 M52.0959105,19.6314238 C51.9968471,19.2602083 51.7094545,18.9695498 51.3398718,18.8650433 C50.9702892,18.7605369 50.5734914,18.859056 50.2942632,19.1235879 C48.7838188,20.5589184 46.8112599,21.3492482 44.7396377,21.3492482 C40.3792158,21.3492482 36.7628579,17.7987512 36.6784907,13.4345192 C36.668149,12.9114427 36.2871359,12.4694676 35.7716797,12.3823789 C32.1123218,11.7624163 29.4566611,8.61905887 29.4566611,4.90853633 C29.4566611,3.79706692 29.6994208,2.71553424 30.1789529,1.69387504 C30.3280923,1.37545701 30.3144847,1.00369716 30.1419402,0.696709526 C29.9693957,0.390266196 29.6580536,0.186152077 29.308066,0.149139383 C28.3702296,0.0506203015 27.424773,0 26.5,0 C11.8881506,0 0,11.8876063 0,26.5 C0,41.1123937 11.8881506,53 26.5,53 C41.1123937,53 53,41.1123937 53,26.5 C53,24.1823522 52.6957339,21.8717804 52.0959105,19.6314238" id="Fill-1"></path>
                        <path d="M19.4997336,11.1309088 C22.4606315,11.1309088 24.8690912,13.5399013 24.8690912,16.5002664 C24.8690912,19.4606315 22.4606315,21.8696239 19.4997336,21.8696239 C16.5388358,21.8696239 14.1309088,19.4611642 14.1309088,16.5002664 C14.1309088,13.5393685 16.5393685,11.1309088 19.4997336,11.1309088 M19.4997336,24 C23.6358277,24 27,20.6358277 27,16.5002664 C27,12.364705 23.6358277,9 19.4997336,9 C15.3641723,9 12,12.3641723 12,16.5002664 C12,20.6363604 15.364705,24 19.4997336,24" id="Fill-3"></path>
                        <path d="M12,36.6339528 C9.99645075,36.6339528 8.36616386,35.0031547 8.36616386,32.9991127 C8.36616386,30.9962538 9.99585921,29.3654557 12,29.3654557 C14.0041408,29.3654557 15.6338363,30.9962538 15.6338363,32.9991127 C15.6344277,35.0037462 14.0041408,36.6339528 12,36.6339528 M12,27 C8.69151139,27 6,29.6919702 6,32.9997042 C6,36.3080298 8.69210293,39 12,39 C15.3078971,39 18,36.3074383 18,32.9991127 C18,29.6913787 15.3084886,27 12,27" id="Fill-5"></path>
                        <path d="M25,44.6332446 C22.9964508,44.6332446 21.3661639,43.0029577 21.3661639,40.9988169 C21.3661639,38.9958592 22.9964508,37.3655723 25,37.3655723 C27.0035492,37.3655723 28.6338361,38.9958592 28.6338361,40.9988169 C28.6338361,43.0029577 27.0041408,44.6332446 25,44.6332446 M25,35 C21.6915114,35 19,37.6915114 19,40.9994085 C19,44.3084886 21.6915114,47 25,47 C28.3084886,47 31,44.3084886 31,40.9994085 C31,37.6915114 28.3084886,35 25,35" id="Fill-7"></path>
                        <path d="M32.5,28.9194751 C31.1659729,28.9194751 30.0806452,27.8342101 30.0806452,26.5007804 C30.0806452,25.1668305 31.1659729,24.0815654 32.5,24.0815654 C33.8335068,24.0815654 34.9183144,25.1668305 34.9183144,26.5007804 C34.9188345,27.8342101 33.8335068,28.9194751 32.5,28.9194751 M37,26.5002601 C37,24.0186138 34.9817898,22 32.5005203,22 C30.0187305,22 28,24.0186138 28,26.5002601 C28,28.9819065 30.0187305,31 32.5005203,31 C34.9817898,31 37,28.9819065 37,26.5002601" id="Fill-9"></path>
                        <path d="M38,39.961923 C36.9181205,39.961923 36.0374379,39.0811843 36.0374379,37.9987265 C36.0374379,36.9167781 36.9181205,36.0370583 38,36.0370583 C39.0813702,36.0370583 39.9625621,36.9167781 39.9625621,37.9987265 C39.9625621,39.0811843 39.0813702,39.961923 38,39.961923 M38,34 C35.7949828,34 34,35.7935689 34,37.9992359 C34,40.2054123 35.7944734,42 38,42 C40.2050172,42 42,40.2059217 42,37.9992359 C41.9994906,35.7940783 40.2050172,34 38,34" id="Fill-11"></path>
                        <path d="M50.8668627,8.50762285 C51.4126248,8.24040268 52.0050861,8.55004303 52.1903728,9.19652371 C52.376072,9.84371392 52.0839085,10.5846401 51.538246,10.8512318 L51.538246,10.8512318 L46.1327874,13.4923995 C45.9546789,13.5795 45.7710752,13.6051762 45.5990045,13.5779228 C45.2435965,13.5216317 44.9339496,13.2393917 44.8092773,12.8034987 C44.6240902,12.1563896 44.9162537,11.4154634 45.4614041,11.1487905 L45.4614041,11.1487905 Z M45.9794823,1.4271852 C46.3811943,0.926028708 47.1001675,0.855277203 47.5857597,1.27094229 C48.0719226,1.68601779 48.1398256,2.42949819 47.7381136,2.93124427 L47.7381136,2.93124427 L44.0205657,7.57254299 C43.7946027,7.85436982 43.4682117,8 43.1406795,8 C42.8844739,8 42.6265566,7.91097102 42.4137177,7.7287859 C41.9281255,7.3137104 41.8602224,6.57023001 42.2619344,6.06848392 L42.2619344,6.06848392 Z M38,2 C38.552,2 39,2.4831491 39,3.07845781 L39,3.07845781 L39,4.92154219 C39,5.5168509 38.552,6 38,6 C37.448,6 37,5.51739013 37,4.92154219 L37,4.92154219 L37,3.07845781 C37,2.4831491 37.448,2 38,2 Z" id="Combined-Shape" transform="translate(44.623133, 7.294153) rotate(5.000000) translate(-44.623133, -7.294153) "></path>
                    </g>
                </g>
            </g>
        </g>
    </g>
</svg>