<?xml version="1.0" encoding="UTF-8"?>
<svg width="44px" height="44px" viewBox="0 0 44 44" version="1.1" xmlns="http://www.w3.org/2000/svg" xmlns:xlink="http://www.w3.org/1999/xlink">
    <!-- Generator: Sketch 58 (84663) - https://sketch.com -->
    <title>Group 5</title>
    <desc>Created with Sketch.</desc>
    <g id="Web" stroke="none" stroke-width="1" fill="none" fill-rule="evenodd" stroke-linecap="square">
        <g id="Landing-page-Copy-28" transform="translate(-153.000000, -954.000000)" stroke="white" stroke-width="6">
            <g id="Group-8" transform="translate(92.000000, 907.000000)">
                <g id="Group-9" transform="translate(61.000000, 47.000000)">
                    <g id="Group-5" transform="translate(-100.000000, -80.000000)">
                        <path d="M87.3,97 L109.3,75" id="Line-2-Copy-2"></path>
                        <path d="M3.36158788,218.962468 L231.138412,3.03753205" id="Line-2-Copy" transform="translate(117.250000, 111.000000) rotate(-1.548158) translate(-117.250000, -111.000000) "></path>
                    </g>
                </g>
            </g>
        </g>
    </g>
</svg>